**********************************
*             BILL               *
**********************************

----Table no. : 6----

----Order time: 14-05-2019----
*       ITEMS PURCHASED       *

                                 
----Tomato Sauce............1.5$----

----Pepsi............2.8$----



-----------Total : 4.3$----------